Matthew Morris

Cathy Sapp

Tiffany Oneil

Michael Schoeffler

Roberto Dungey

Glenn Smith

Cuc Dunn

Bradford Heald

Brenda Argenbright

Marguerite Peters

Helen Lambert

Pierre Pritchard

Veronica Ewalt

Donte Parker

Michael Greene

Susan Cawley

Ernestine Doire

Ralph Manson

Mary Flint

Yolanda Miles
